{
  "server": {
    "port": 3000,
    "app": {
      "name": "wfcomponent_build_pack"
    }
  },
  "auth0": {
    "clientSecret": "TMZLXivTdlaztQQMpM-dDSDTiSnJNpPg1xiEwL0QH2s6PL_N3-j1Jh9Y473Dgj29",
    "clientId": "JWTRFgNSQJz0ovDIPlWgOic7bqiGoT4v"
  },
  "component": {
    "route": "/start",
    "config": "app/component_data/config/config.json",
    "tracker": "app/component_data/config/tracker.json",
    "inputs": "app/component_data/inputs/",
    "outputs": "app/component_data/outputs/",
    "map": "app/component_data/config/map.json"¸
  }
}